train_tss_values,val_tss_values,train_hss_values,val_hss_values,train_loss_values,val_loss_values,learning_rate,train_time,val_time
0.34940414156391325,0.4374600357197981,0.3495364844182785,0.3638649865832509,0.6042272223179416,0.5494543462991714,0.01,316.996394360438,64.89538950193673
0.46772863678063575,0.5080727846007982,0.4677178984998888,0.38007591580397143,0.5311844910202094,0.6141210794448853,0.01,316.1485759783536,64.38951641973108
0.5520503508277588,0.3860549467510418,0.5520421411445877,0.3883767034978026,0.4904031840419601,0.45559949112140524,0.01,316.0318922493607,64.47249053325504
0.5708430710174949,0.3125868189535422,0.570866902946646,0.34910955731046445,0.4701950630113851,0.4409009584430921,0.01,316.8137459764257,64.55446110293269
0.5713299489560052,0.4405772495755518,0.571561816144245,0.3859695719256224,0.46807320289603394,0.4749072112016759,0.01,317.11091890279204,64.12015879806131
0.6020219245331853,0.4970922540956497,0.6021074360432747,0.3850639008330807,0.43009989979831575,0.6036494300085105,0.01,316.6248220335692,64.3345564166084
0.6117914014456416,0.3233413445637554,0.6118083250563643,0.34647013394722737,0.4169695831756289,0.4377700100195105,0.01,316.84990177396685,64.1689004022628
0.6352209682368815,0.29848907459263996,0.6351737315366511,0.3278916342960256,0.39966958671702935,0.4431800626976005,0.01,317.57322892639786,64.54813903104514
0.661545865789481,0.2715311004784689,0.6614813203180532,0.30805599028159303,0.3805425665456499,0.4586437819841302,0.01,317.1448675841093,64.26475822366774
0.6678350746970272,0.19663528322271956,0.6678908388529515,0.24557007338464293,0.3640546215296634,0.582006829944676,0.01,317.35372146684676,64.8319823788479
0.6960042550408598,0.2457748109276123,0.6959724791568781,0.2973196453756464,0.34211705698773215,0.4652439788047035,0.01,317.5574205201119,64.9357268344611
0.707529072376702,0.44489614799461996,0.7074562193834849,0.421782749966358,0.33595960000167885,0.522593393598257,0.001,317.2961564203724,64.3812333997339
0.7372834111882688,0.33367969042841705,0.7374309438049027,0.3617968663616504,0.30259305899534966,0.48455173898314646,0.001,315.8284038314596,64.2065996369347
0.734294424917416,0.33533338478160213,0.7342911680969659,0.36756069266371005,0.3036235799690439,0.48654896778575446,0.001,316.2068244209513,65.1446410221979
0.7405175890186897,0.4015803805701938,0.7404944057781233,0.4178157318578653,0.29406265458980635,0.4719840746680748,0.001,316.9810906909406,65.34509039763361
0.7522921632937121,0.3134136661301347,0.7522725353468053,0.35199143190562715,0.29117730754845556,0.4785367666104398,0.001,315.7450904743746,64.00281489640474
0.7598932072280855,0.37894681718960155,0.7596553680271062,0.39965293320853656,0.2855380893069527,0.4747355652783634,0.0001,317.5929683111608,64.05264601297677
0.7433564976354461,0.3449578859171389,0.7434053763130365,0.3789378392862009,0.2979949708277682,0.47587783432612984,0.0001,316.52392896078527,64.34352651052177
0.7480073125506609,0.34894328930831475,0.748105428663183,0.38164498771609867,0.2891868496109656,0.47986203576911685,0.0001,315.64560036640614,64.02194029185921
0.741361690914712,0.37157685268890706,0.74137071718821,0.4007228747349038,0.2916616809557689,0.4807480365527257,0.0001,315.77031082380563,64.36470374464989
0.7513618992777674,0.36078649703437476,0.7513783669896402,0.39118780014762705,0.2832486517332468,0.4830769146516351,0.0001,319.74875577911735,64.37150491867214
0.7614525209636713,0.36465889797808304,0.7614041096515904,0.39538650497419514,0.2861378015456688,0.4817662473839029,1e-05,317.3003377029672,64.3009388986975
0.7320614366302074,0.3626661962824951,0.7321053854245425,0.394077339594614,0.29716194568484916,0.48118074238300323,1e-05,316.8165113935247,64.49917978141457
0.7459043574115803,0.3626661962824951,0.745771235320087,0.394077339594614,0.29548949253327433,0.4806315107310538,1e-05,317.69610330369323,64.22777178231627
0.7588690534200231,0.36665159967367095,0.7584681166371481,0.39669002534665276,0.2864703713215282,0.48022622435937745,1e-05,323.8919704053551,65.83559091389179
0.7420984090004481,0.36465889797808304,0.7419619130261305,0.39538650497419514,0.29246757216356667,0.48027546298532287,1e-05,317.63351028971374,64.31675261259079
0.75518608155409,0.36477190042555063,0.7549165270820046,0.3938072978192238,0.28675920963813895,0.4801698589176571,1.0000000000000002e-06,318.3545265812427,64.8963554687798
0.752000043134647,0.36477190042555063,0.751992849457087,0.3938072978192238,0.28529955652071814,0.48015690671864075,1.0000000000000002e-06,325.44963322021067,64.20265845675021
0.7469939241890744,0.36477190042555063,0.7469787230934035,0.3938072978192238,0.2835545340954415,0.4801552173468458,1.0000000000000002e-06,327.4067437592894,65.95315757300705
0.7504225376613436,0.36477190042555063,0.7504653572412718,0.3938072978192238,0.2866415357210611,0.4801875532573184,1.0000000000000002e-06,315.42883403319865,65.31964019313455
0.7602956095487788,0.36477190042555063,0.7602195636611025,0.3938072978192238,0.2732964917596153,0.48027539084728615,1.0000000000000002e-06,316.0716718491167,64.18688183091581
0.7543065692922826,0.3657117500496108,0.7543364181197202,0.3952471094972916,0.28720198949476433,0.48027130575077137,1.0000000000000002e-07,317.02131643891335,64.66974127106369
0.7640187113006143,0.3657117500496108,0.7640439635986844,0.3952471094972916,0.28516692881449374,0.48026870397487814,1.0000000000000002e-07,317.3312794044614,64.07260443456471
0.747175454108951,0.3657117500496108,0.7472397906762803,0.3952471094972916,0.2878322353316701,0.4802674215436929,1.0000000000000002e-07,317.08251954521984,64.24797862861305
0.7645049575984735,0.3657117500496108,0.7645267781133882,0.3952471094972916,0.2754552889707442,0.48026866478829694,1.0000000000000002e-07,315.75707149412483,64.01977764256299
0.7608408488993803,0.3657117500496108,0.7605126218956026,0.3952471094972916,0.2843118656439832,0.4802681128770681,1.0000000000000002e-07,315.9534082170576,64.1542179081589
0.7580801930473823,0.3657117500496108,0.7581329452029713,0.3952471094972916,0.28274389511704867,0.4802676938766203,1.0000000000000004e-08,315.4992319578305,64.4616631232202
0.7619366431148266,0.3657117500496108,0.761984689468802,0.3952471094972916,0.2846252600211558,0.48026756565796874,1.0000000000000004e-08,317.06586050242186,64.6228380035609
0.7547596789277391,0.3657117500496108,0.754882843675326,0.3952471094972916,0.2881318807022732,0.4802675110216931,1.0000000000000004e-08,316.0019921660423,64.55871131736785
0.7649702744353186,0.3657117500496108,0.764961426351417,0.3952471094972916,0.2774907777829642,0.4802675000786529,1.0000000000000004e-08,317.2642506090924,64.47110504936427
0.7430976167360872,0.3657117500496108,0.7430700146064746,0.3952471094972916,0.2997499703834419,0.48026734356515866,1.0000000000000004e-08,317.1793570090085,64.37097608111799
0.7478568332615582,0.3657117500496108,0.7478605404122077,0.3952471094972916,0.289370462061449,0.48026727709003675,1.0000000000000004e-08,316.5279661593959,64.19101775065064
0.7614656319768683,0.3657117500496108,0.7614337806139961,0.3952471094972916,0.2808500406309278,0.48026723076068495,1.0000000000000004e-08,316.3598161749542,64.56735824141651
0.7446134957352791,0.3657117500496108,0.7446168630273093,0.3952471094972916,0.29488469310131177,0.48026714973956725,1.0000000000000004e-08,315.57999371457845,64.36170678399503
0.7475968509083146,0.3657117500496108,0.7472737295775936,0.3952471094972916,0.2909199305326273,0.48026703927523884,1.0000000000000004e-08,317.2960261730477,64.41279343701899
0.7439077254279013,0.3657117500496108,0.7439747623532638,0.3952471094972916,0.2927347898957165,0.48026693272562226,1.0000000000000004e-08,318.3663828317076,64.39284462481737
0.7439791226565668,0.3657117500496108,0.7440140626727166,0.3952471094972916,0.29091373754685,0.4802667134267799,1.0000000000000004e-08,315.71694885008037,64.93889990076423
0.7580288090924524,0.3657117500496108,0.7579178758768812,0.3952471094972916,0.28489764448084176,0.4802666777247658,1.0000000000000004e-08,316.78868218604475,64.11318729911
0.7513892803579941,0.3657117500496108,0.7513374489265918,0.3952471094972916,0.2845607681114345,0.48026654563875776,1.0000000000000004e-08,320.0742554310709,64.66247620712966
0.7590190315968758,0.3657117500496108,0.7590478795503358,0.3952471094972916,0.28182202851393195,0.4802665043014528,1.0000000000000004e-08,317.1501585189253,64.18747862894088
0.7458364166232722,0.3657117500496108,0.7459372732904386,0.3952471094972916,0.2870712702560762,0.480266466519748,1.0000000000000004e-08,316.3666791487485,64.55394564568996
0.7490386588882743,0.3657117500496108,0.749034945802424,0.3952471094972916,0.28513692503683136,0.4802663923059669,1.0000000000000004e-08,317.2960660094395,64.32675515580922
0.7637862759259734,0.3657117500496108,0.763785877388967,0.3952471094972916,0.27550304946966814,0.48026636599610417,1.0000000000000004e-08,317.53259516879916,64.20916086155921
0.7582212219064628,0.3657117500496108,0.7581312621228157,0.3952471094972916,0.2806591255715374,0.48026637396759403,1.0000000000000004e-08,316.754455441609,64.28513793740422
0.7416008509707919,0.3657117500496108,0.7416434207879342,0.3952471094972916,0.2970418747869903,0.48026629540106375,1.0000000000000004e-08,315.4926762711257,64.17939505446702
0.7567079623114337,0.3657117500496108,0.756708554576222,0.3952471094972916,0.287267372696644,0.4802662202717452,1.0000000000000004e-08,316.49848538357764,65.19308244250715
0.7555294116214676,0.3657117500496108,0.7555270462335416,0.3952471094972916,0.2829607934444195,0.4802661690884664,1.0000000000000004e-08,317.44736767653376,64.7370174266398
0.7540433773246316,0.3657117500496108,0.7540517710771192,0.3952471094972916,0.2849516624012179,0.48026610227791056,1.0000000000000004e-08,316.0679196184501,64.49338308721781
0.7395939358225746,0.3657117500496108,0.739601847122674,0.3952471094972916,0.29540568948213286,0.48026599958381155,1.0000000000000004e-08,315.94407912157476,64.41210303455591
0.7567369985652888,0.3657117500496108,0.7567093585726149,0.3952471094972916,0.2862022031533002,0.4802659110765967,1.0000000000000004e-08,315.3208011602983,63.86370051279664
0.7546953084832458,0.3657117500496108,0.7546543556949723,0.3952471094972916,0.2878409414798969,0.48026580473218683,1.0000000000000004e-08,314.09891158435494,64.00991579517722
0.7593465305634369,0.3657117500496108,0.7593549835252381,0.3952471094972916,0.2825777035061757,0.4802657734815789,1.0000000000000004e-08,315.3183983732015,64.54527361690998
0.752742229273983,0.3657117500496108,0.7528050908446237,0.3952471094972916,0.2806045762115148,0.4802657400447307,1.0000000000000004e-08,318.99713730160147,63.91130235325545
0.7578930664623235,0.3657117500496108,0.7578179729148657,0.3952471094972916,0.28455131795823363,0.48026574008024725,1.0000000000000004e-08,315.70844018645585,64.02938517462462
0.7556483932654099,0.3657117500496108,0.7555244523901108,0.3952471094972916,0.2856982430515567,0.4802656453734232,1.0000000000000004e-08,314.85944705829024,64.10080120153725
0.7523531576735656,0.3657117500496108,0.7522975462635492,0.3952471094972916,0.29551554544970343,0.48026546427459155,1.0000000000000004e-08,315.3337614107877,64.05131104402244
0.7426550734342563,0.3657117500496108,0.7424787049780319,0.3952471094972916,0.28434646016401455,0.4802654001711852,1.0000000000000004e-08,315.0425935257226,64.34001799672842
0.7564715074175264,0.3657117500496108,0.7564253274123359,0.3952471094972916,0.28485373252272184,0.48026534955617106,1.0000000000000004e-08,313.89153976459056,65.49539841618389
0.7637497373514731,0.3657117500496108,0.7637680041391615,0.3952471094972916,0.27878018318553693,0.4802653008827277,1.0000000000000004e-08,314.41599155403674,63.726329741068184
0.7608240276003756,0.3657117500496108,0.7608036458795854,0.3952471094972916,0.279150467431798,0.4802652181528698,1.0000000000000004e-08,312.79672415275127,63.68443574756384
0.7533818132505681,0.3657117500496108,0.7530606333981829,0.3952471094972916,0.2917137080704787,0.4802651748937255,1.0000000000000004e-08,312.8359631765634,64.04428131133318
0.7573056993016267,0.3657117500496108,0.7573001671717998,0.3952471094972916,0.28193307354677694,0.4802651466383457,1.0000000000000004e-08,314.04588684719056,64.16812561359257
0.7425143482438876,0.3657117500496108,0.7425306220426523,0.3952471094972916,0.2887400773620437,0.48026502552694816,1.0000000000000004e-08,313.8189727384597,64.03446113038808
0.7569297465633049,0.3657117500496108,0.756975830341683,0.3952471094972916,0.2816519227813495,0.48026502828145307,1.0000000000000004e-08,314.37056929431856,63.965450529940426
0.7396720450307533,0.3657117500496108,0.7396062403300895,0.3952471094972916,0.2933711004130832,0.48026490703193564,1.0000000000000004e-08,313.69422634970397,64.348727023229
0.7492636684759661,0.3657117500496108,0.7493129338383923,0.3952471094972916,0.29364578578581657,0.4802647644409247,1.0000000000000004e-08,314.8912808643654,64.29032489657402
0.7672964376175412,0.3657117500496108,0.7673145884458409,0.3952471094972916,0.2785152095261395,0.480264753533401,1.0000000000000004e-08,314.57375699747354,63.911788849160075
0.7699843139894568,0.3657117500496108,0.7699789570462674,0.3952471094972916,0.27211705118733664,0.480264717203928,1.0000000000000004e-08,314.94360333122313,64.0411435039714
0.7600155850413173,0.3657117500496108,0.7599571583453263,0.3952471094972916,0.28716948291438205,0.4802646733646802,1.0000000000000004e-08,313.6274968031794,64.1174282124266
0.7499328629799514,0.3657117500496108,0.7499277760143317,0.3952471094972916,0.2864167649470033,0.4802645946481912,1.0000000000000004e-08,314.0285817338154,60.73824784997851
