train_tss_values,val_tss_values,train_hss_values,val_hss_values,train_loss_values,val_loss_values,learning_rate,train_time,val_time
0.29942085746921965,0.23627217374745493,0.2993911342353474,0.14094524196848712,0.9137862019267371,1.498970822284096,0.01,323.79684001300484,68.61722609400749
0.5033155396404375,0.05555704750418694,0.5033246032115106,0.028546895110404154,0.7103432858117534,2.050771943309851,0.01,324.48467560857534,65.5028858333826
0.6934992036202545,0.0248702411585768,0.693503023255162,0.013178985553182334,0.4872960488036858,2.918866672013935,0.01,323.8449021317065,65.56982386019081
0.7786602677630435,0.24176891940059486,0.7786543345441085,0.22571994816851856,0.37238561157866307,1.049233560946672,0.01,320.4324320917949,65.98606388829648
0.8597980825767704,0.11879708793328221,0.8598491905617169,0.06670998840183925,0.2520424560693447,3.5144436348948562,0.01,323.70586954429746,65.29977966845036
0.9005131121513732,0.2912872370033641,0.9005540477630658,0.23476436102549159,0.19154483022904056,1.5151375812343566,0.01,320.62155560869724,65.48775415308774
0.9237202308842782,0.19344443196632868,0.9237066430463834,0.11266772505355334,0.15054121328139963,2.9074339657499078,0.01,320.2232683831826,65.31710505858064
0.9374635314609187,0.33753778020829767,0.9374837570471899,0.34443392583550275,0.1302002011069173,1.1912269037704009,0.01,322.2368181236088,66.34380309097469
0.9450526778266278,0.20357367811994945,0.9450553898026874,0.11902187527432413,0.10293834651505501,3.2363072325263107,0.001,323.30705126188695,65.24963129125535
0.972232027433159,0.3210756190094871,0.9721960811514267,0.31063800136523934,0.06407248493436446,1.2912021307295123,0.001,319.77015706244856,65.80834959819913
0.9753777355514226,0.32415662856501126,0.9752998194498975,0.3252516369568892,0.050002990143035546,1.2657004252552022,0.001,320.37522892002016,65.48940200544894
0.9832850892501794,0.33029667534166995,0.9833159665013106,0.3282905736103799,0.038565568918829576,1.2454143915541895,0.001,321.7563207419589,65.57156128808856
0.9848739223080258,0.33455320478703915,0.9848750916712081,0.3300302611028624,0.03402377330089896,1.3287733189119313,0.001,320.20184501446784,65.6191664589569
0.9882099426353692,0.34708720087108097,0.9882108226766656,0.33386994315693314,0.03094675720982532,1.271351716010382,0.0001,321.18597455415875,65.62381222564727
0.9866628214861074,0.3217274649297129,0.9866545560324612,0.33025461744730966,0.02857644031913056,1.29240723244418,0.0001,321.548635459505,66.09077000617981
0.9895336879871335,0.3384874733280273,0.9895427962370456,0.33099217797873615,0.032255236540831546,1.3348443799528595,0.0001,321.63561934698373,65.71825174894184
0.9871282165931083,0.3387609068226541,0.9870948670067108,0.3279610110743582,0.03047145064050179,1.2971005663377837,0.0001,321.8196220546961,65.6496609179303
0.9873294571996907,0.32516003183547126,0.9873218374298932,0.3292344087191037,0.028848572624217573,1.2669414357198483,0.0001,320.89165627676994,65.40577131602913
0.9899909330513531,0.3303821233087405,0.9899904106101911,0.33054028968515664,0.023195916196427496,1.2989027380198852,1e-05,321.70867442525923,65.55613121576607
0.9885084778781664,0.34769144006679586,0.9884294196180408,0.33425689266292546,0.026970561278082457,1.2851787846547698,1e-05,320.74093939736485,65.92177214100957
0.9856797407393554,0.34370956480129683,0.9857603230531692,0.3354803427113083,0.0330705382804025,1.2829247241749901,1e-05,323.33745627012104,65.96319851372391
0.9899905464402904,0.34012929498103045,0.9899903505237551,0.327792443685268,0.02256346963970753,1.3155063548729868,1e-05,325.58846769388765,65.2568133417517
0.9846543288246625,0.31639673246973926,0.9846516981781659,0.3243351464848761,0.03366563682033419,1.3018564010621558,1e-05,322.4682122282684,65.80169751588255
0.9862198642412583,0.3444090174460337,0.9862069811818556,0.3316157665112082,0.029006297327660926,1.2950293051901993,1.0000000000000002e-06,323.3085884395987,65.4307642383501
0.987518304264083,0.34207872931548844,0.9875435144503729,0.3382838283828382,0.028096681230393276,1.2965725266937322,1.0000000000000002e-06,320.37548898532987,65.6058079469949
0.9835589149519198,0.34165148948013474,0.983537988591028,0.32983641641044753,0.031779998856235385,1.3161764976184553,1.0000000000000002e-06,319.6011023968458,65.24648396391422
0.9877354422171414,0.33813957803352496,0.9877628801690631,0.33130529319671675,0.029110185070347797,1.3205693724147543,1.0000000000000002e-06,322.2312712650746,67.09867948386818
0.9884283758499671,0.35046605762610905,0.9884338200079201,0.34771055971631487,0.026884594424279717,1.3000144933676143,1.0000000000000002e-06,322.62729561608285,67.93954450171441
0.9860082018383449,0.343672944243981,0.9859858260493198,0.3371037960860946,0.02998096592354777,1.280584107733152,1.0000000000000002e-07,321.54280907381326,65.55922515131533
0.99063896750888,0.32648081326933676,0.990657298413339,0.3312480957912962,0.023726403350308803,1.272918312289556,1.0000000000000002e-07,321.2477392097935,65.61632210575044
0.991107692752259,0.3412327944414876,0.9911014155597371,0.32433831002779945,0.022705123050749846,1.3013006394244975,1.0000000000000002e-07,319.06757446564734,66.20703409519047
0.9897717519514865,0.3468259742288929,0.989767932430305,0.336403052827749,0.025604233910284897,1.265768468695521,1.0000000000000002e-07,325.03500050865114,65.6412098808214
0.9884241386368495,0.3333032230973178,0.988433494987396,0.32491899218302817,0.025162120275961705,1.3434446007095016,1.0000000000000002e-07,321.8154876641929,66.15330626163632
0.9877642416398518,0.33873161037680116,0.9877660009210132,0.3355307625990446,0.027889330678344357,1.2662979718527487,1.0000000000000004e-08,325.62238017097116,65.70697862748057
0.9886855512597643,0.3468833464353549,0.9886558114130564,0.34310348366469984,0.02459091853244343,1.299773802869982,1.0000000000000004e-08,327.44390240497887,65.83440817706287
0.9899980401119358,0.3440647842072625,0.9899902032759227,0.3379113567429537,0.023455900108206394,1.279608970058657,1.0000000000000004e-08,327.2647760696709,65.45258560962975
0.9913317270759731,0.3393895597232461,0.9913217835388538,0.33651940997265783,0.022578669125727938,1.3076455490050936,1.0000000000000004e-08,322.3472914919257,66.29138914868236
0.9928902603856786,0.32383558834587384,0.9928818110429034,0.33057078880178836,0.018951105956672574,1.2832689252791807,1.0000000000000004e-08,321.53674926422536,65.61940684262663
0.9902309919822606,0.3257178849919189,0.9902127345603674,0.33185459348334634,0.02433620313359789,1.2687490201961624,1.0000000000000004e-08,320.63159170746803,65.74609777797014
0.9864314750755763,0.34115467058588006,0.9864323534664393,0.3338190713485441,0.028833974009045,1.2737369628504671,1.0000000000000004e-08,320.97336333151907,65.66761599574238
0.9913371427696921,0.34095325752064176,0.9913251758886751,0.33368775304671533,0.025001021374673235,1.2636923170132817,1.0000000000000004e-08,325.3524570390582,66.7808519070968
0.9889323840809577,0.34173205470622975,0.9888744353330514,0.3293579924469699,0.026694036429844054,1.291571942287734,1.0000000000000004e-08,323.1500746551901,67.50248364266008
0.9895464110090922,0.3320251656469876,0.9895462478305862,0.33668951294959665,0.02503073961744118,1.2533293299784418,1.0000000000000004e-08,321.327584605664,65.63165526930243
0.9886828657621052,0.3356396146540822,0.9886538710536711,0.32123934644569974,0.025517292775618063,1.3388249785741464,1.0000000000000004e-08,321.2093034852296,65.44992876797915
0.9915565560352666,0.3218592989360507,0.9915479880694551,0.333775124499029,0.02639922276851837,1.271004878869127,1.0000000000000004e-08,320.2532795825973,66.89078988600522
0.9895313505330658,0.34859718851774635,0.9895445699123763,0.3364538943588378,0.026223194365740964,1.2851147184101457,1.0000000000000004e-08,321.03920712321997,65.64462568983436
0.9902163921319509,0.3439378329419,0.9902127668416709,0.34062024369220634,0.02658396095097118,1.2853158719106497,1.0000000000000004e-08,322.3085727179423,66.3098137723282
0.9908836487490138,0.34973852922076337,0.990880217161811,0.34666505338939474,0.025927094875435507,1.285576924763869,1.0000000000000004e-08,321.43246838171035,66.93895228020847
0.9866441544630248,0.3204188903482861,0.9866491351880314,0.3276677123265956,0.028233587818081055,1.2750320323043924,1.0000000000000004e-08,321.7607602654025,65.69320975244045
0.9902056308087291,0.34646465139670823,0.9902091593799688,0.3372625254882577,0.02424396399791382,1.298069995557869,1.0000000000000004e-08,321.67140991892666,65.3984952783212
0.988888454975293,0.3324060194430746,0.9888781481734107,0.31659615333191493,0.025194323578189886,1.3218238147296288,1.0000000000000004e-08,323.0613768734038,65.40691784117371
0.9891027775162998,0.3288306323637838,0.9891007548888882,0.33624624755818244,0.02338981871025842,1.2548949034601704,1.0000000000000004e-08,319.8823056258261,65.42130041588098
0.9888852272940148,0.34544415853283394,0.9888789654139782,0.3371517142206988,0.026583242026286934,1.298110414877444,1.0000000000000004e-08,324.58242961671203,65.80237794760615
0.9920053002484687,0.34024526007919814,0.99199273678853,0.3257722295399641,0.02295177603874594,1.2907796918165364,1.0000000000000004e-08,320.78831674251705,65.86073275469244
0.9893180619283342,0.34474104383236565,0.9893232500880049,0.34455808415086,0.026636935365958028,1.2881256297400236,1.0000000000000004e-08,324.40091038122773,65.41605922672898
0.9884424615870113,0.3460471770433049,0.9884336594073384,0.3316044599785703,0.02906106879604894,1.2749286985173902,1.0000000000000004e-08,319.52081730775535,66.22899089567363
0.9882425912808702,0.32563854045106755,0.9882103206598041,0.33236568236213154,0.02638448975848538,1.2712508460676313,1.0000000000000004e-08,320.37845752667636,65.97052302677184
0.9853094554526276,0.3172414466584961,0.985319237421221,0.3199976359221626,0.028952399586920637,1.3375023607547056,1.0000000000000004e-08,322.7654441455379,66.92571034654975
0.9888838263743843,0.34310776697606976,0.9888782164036546,0.3412064187273984,0.023880058796363766,1.2829453340418058,1.0000000000000004e-08,319.41999357938766,65.23648262303323
0.9870715289636346,0.3379735648403586,0.9870975113745174,0.32957970469338477,0.02854731920286284,1.315656949462177,1.0000000000000004e-08,318.55503911618143,65.23438016604632
0.987305637806764,0.33627315029565,0.9873176898115331,0.32633853421958875,0.03036392191375251,1.3273627015755904,1.0000000000000004e-08,319.7076615365222,65.56322709936649
0.9899953739302998,0.34935889610992027,0.9899906393942483,0.345276499641693,0.025447680056426555,1.2850189426430836,1.0000000000000004e-08,318.34080076310784,66.06951460056007
0.9904659549285293,0.3343444676103375,0.9904341978022325,0.31836060543365297,0.023436731772805527,1.3013620141775168,1.0000000000000004e-08,319.4333518706262,65.72693983092904
0.9859920745513281,0.34002431605005784,0.9859871641352245,0.3420266792400935,0.02778864367053019,1.2650809414912496,1.0000000000000004e-08,318.770428375341,65.02735549397767
0.9879971025134311,0.3272083416746827,0.9879874233690096,0.3323035612675124,0.02792722970376527,1.2799798003872733,1.0000000000000004e-08,320.89254420250654,65.18535700533539
0.9866734678383099,0.3428123611470534,0.9866547241663012,0.3269043403559866,0.026690012186656297,1.2837059711067316,1.0000000000000004e-08,318.7643640525639,65.17815856449306
0.9917527222146705,0.334750955796546,0.9917673157473016,0.31561659475391807,0.0245008250496274,1.3264678676976218,1.0000000000000004e-08,320.3544206917286,65.40218107402325
0.9886658273988549,0.3417283926504983,0.988655163702461,0.3325647285233166,0.026406869201529837,1.2812252094113399,1.0000000000000004e-08,319.4057329297066,65.470309747383
0.9880181239226977,0.3344921705248457,0.9879837958628472,0.33607570717923047,0.025636796789820507,1.2719176777719168,1.0000000000000004e-08,317.44902024883777,65.37968862894922
0.9893753014818905,0.3329870656191559,0.9893215155008439,0.3095975267335677,0.02412448628632405,1.3358737704815882,1.0000000000000004e-08,319.22310217563063,65.58897693734616
0.9873292332717786,0.3334069813430468,0.9873216785352503,0.3325601669552343,0.029365544466325,1.3203164021205769,1.0000000000000004e-08,318.50706057436764,65.4639213019982
0.987097664671666,0.34433699701664516,0.9870995203183248,0.3347971349051396,0.027622197124132643,1.2991281089080873,1.0000000000000004e-08,319.0230555348098,65.96437699068338
0.9915486860419334,0.33053470896422404,0.9915478684828652,0.3362553165067833,0.02175867962762813,1.2525941935330098,1.0000000000000004e-08,319.20005761180073,65.83418264146894
0.9880203499057865,0.33653071488210623,0.9879857339498028,0.3099475756993186,0.029392044913368397,1.3331652849937152,1.0000000000000004e-08,324.1437293095514,65.28558938670903
0.9891203386862123,0.32876593604585863,0.9891010913552396,0.3327950040405588,0.025601826437079478,1.292463020303107,1.0000000000000004e-08,319.01135811395943,65.21020628232509
0.9900006075169437,0.34211779124329234,0.9899909100920339,0.33335870789557254,0.025185463504055417,1.3274799275223224,1.0000000000000004e-08,317.5510304281488,64.82009533885866
0.988215895994022,0.3450010497893096,0.9882112025634084,0.3418782017551817,0.028235908218840092,1.317716393757636,1.0000000000000004e-08,296.7249295832589,60.23911722935736
0.988000322959768,0.3461680248824482,0.9879888853257744,0.34151026331159656,0.02705599890037496,1.2971065681016178,1.0000000000000004e-08,292.1915777651593,59.04051220230758
0.98866214243896,0.30273604390560666,0.988655620587464,0.31860827516922496,0.027173511059813905,1.2791769933943502,1.0000000000000004e-08,296.6184675395489,60.299427730962634
0.9884433565692721,0.33521115413348435,0.9884334457749495,0.33431457410376564,0.026447546838002208,1.2739921277746347,1.0000000000000004e-08,290.9154178323224,59.06907745078206
