train_tss_values,val_tss_values,train_hss_values,val_hss_values,train_loss_values,val_loss_values,learning_rate,train_time,val_time
0.4209016558154489,0.21898496240601506,0.4211460210464938,0.06444367512903307,0.5689185196048275,1.8545854989548816,0.01,241.38566275779158,57.58440248668194
0.6259370692565938,0.5366793662007368,0.6259687090132892,0.25632929983415104,0.4198719482003795,0.6901478187053227,0.01,237.82484063040465,56.73750373534858
0.7029397851255267,0.543163697835192,0.7028336296886315,0.34886269489352134,0.3435435997083854,0.48384827658461005,0.01,236.49154297821224,55.95944903977215
0.7626133431787514,0.5406090730181158,0.7626600331612478,0.33541009525449467,0.2898646158064711,0.5173328914040444,0.01,236.49762462545186,55.97643568459898
0.7966275765710608,0.09341726800222032,0.7967088746712722,0.13686224136178393,0.2544093110656004,0.3823977013611618,0.01,237.20058812294155,56.57361858524382
0.8460400354687425,0.06429454508755109,0.8462185908500476,0.10582873042900452,0.20475187373316683,0.43119977559328226,0.01,235.5815594587475,57.12031284440309
0.8720724878976203,0.4815562395922693,0.8720173161206138,0.3236924616340228,0.17323474466836,0.5683490494334632,0.01,236.1645077969879,55.41256765089929
0.891392463405552,0.4911944290255841,0.8914294075130443,0.26782824626358753,0.1464273609768299,0.7953511859454653,0.01,235.04481501225382,55.43969887495041
0.920474073469298,0.386814351314528,0.9203557244617397,0.33803903842655625,0.11142587735895862,0.5194129303700346,0.01,237.58564768452197,55.65390110202134
0.9369765542452781,0.12791416460614624,0.9370014118781748,0.18428585708963022,0.10553837763763504,0.4471820524537607,0.001,236.27960523869842,56.24581038579345
0.9474734519673313,0.4370111520411767,0.9476743391641005,0.35671734776363007,0.09107484487966762,0.525115497649976,0.001,235.8375995857641,55.59127368405461
0.9718712121961378,0.3860069637180199,0.9718673979305417,0.3298468968379521,0.04917123379468282,0.5511991987096182,0.001,237.40850867982954,55.3953755274415
0.9789720517473368,0.37419892011908973,0.9789989475297091,0.3363448492871864,0.04108132468977881,0.5580553136418993,0.001,236.66205913573503,55.68187061790377
0.9758657924516893,0.3723192208709694,0.9758190464822621,0.33292816713528695,0.03865379643829548,0.583029087893117,0.001,237.16980200447142,55.5707346284762
0.9821497387565644,0.3566193167482465,0.9821705523706666,0.3399423378138275,0.03186137776742402,0.5838572818240352,0.0001,235.88666329532862,55.504959809593856
0.9785763767177037,0.37218675884341723,0.9786040280551338,0.339824976171073,0.03344212213125062,0.6035465605901645,0.0001,235.9303245814517,55.78924294002354
0.9853430243577357,0.37513876974314986,0.985335752355296,0.3380665184940968,0.02495585719202932,0.6138369567970764,0.0001,240.21481370460242,57.23080325499177
0.9877429337643915,0.3731266084674774,0.9877066192637358,0.3415831293019818,0.02226741646744214,0.6140548703021041,0.0001,239.08739429619163,56.102851416915655
0.982815093958652,0.37218675884341723,0.9829308669600958,0.339824976171073,0.0274990785357176,0.6160752959184203,0.0001,237.8319619083777,57.766045403666794
0.9809218370180598,0.37419892011908973,0.9809803550641422,0.3363448492871864,0.028940259101050265,0.62978317142309,1e-05,237.68431573081762,56.780287691392004
0.981780482919242,0.37419892011908973,0.9817737015347867,0.3363448492871864,0.02974693712908598,0.6289378186623913,1e-05,236.69623263832182,55.94677605852485
0.9806015100150939,0.37419892011908973,0.9805853468629125,0.3363448492871864,0.027089630524237237,0.6286640095663731,1e-05,238.01067663636059,55.88086239434779
0.9811389652580965,0.37419892011908973,0.9809753434156853,0.3363448492871864,0.030818779137916863,0.6288988565781848,1e-05,238.39994730614126,56.25956150889397
0.9881415124775987,0.37513876974314986,0.9881126584645266,0.3380665184940968,0.022316301409243407,0.6276282329048377,1e-05,235.56767481192946,56.44206653907895
0.9814264151370052,0.37513876974314986,0.9813724772808854,0.3380665184940968,0.027841254250561352,0.628134481323536,1.0000000000000002e-06,240.99816922284663,55.51292279083282
0.9885465567841999,0.37513876974314986,0.9885085333512518,0.3380665184940968,0.022393132481609263,0.6281249830042761,1.0000000000000002e-06,239.3548843609169,56.073724480345845
0.9803167882707305,0.37513876974314986,0.980183791409124,0.3380665184940968,0.02922751990001278,0.6281210553156686,1.0000000000000002e-06,237.51976995915174,54.89825880061835
0.9853232309833309,0.37513876974314986,0.9853394724985597,0.3380665184940968,0.02469070257246053,0.6280272573645811,1.0000000000000002e-06,236.39482885226607,55.78174950554967
0.9826800261490496,0.37513876974314986,0.9825503271342287,0.3380665184940968,0.0278590799599524,0.6280668095934351,1.0000000000000002e-06,240.36301497463137,56.07764864899218
0.9821969461458798,0.37513876974314986,0.9821676467291182,0.3380665184940968,0.026976546476224342,0.6279610290144132,1.0000000000000002e-07,238.33732709661126,55.40316403005272
0.9858084930140896,0.37513876974314986,0.985732645695762,0.3380665184940968,0.025749009585623758,0.6279671851856014,1.0000000000000002e-07,236.9432328203693,55.754934053868055
0.9833895164515192,0.37513876974314986,0.9833570947825133,0.3380665184940968,0.02723050395372187,0.6279692925037998,1.0000000000000002e-07,237.35814899858087,55.76923319417983
0.9889064976228209,0.37513876974314986,0.9889064976228209,0.3380665184940968,0.022795716995788272,0.6279644366849086,1.0000000000000002e-07,238.67110778950155,55.77232882659882
0.986129591105658,0.37513876974314986,0.9861323775547335,0.3380665184940968,0.02368452285733118,0.627955894918391,1.0000000000000002e-07,239.6143973870203,55.84246028121561
0.9833634719710669,0.37513876974314986,0.9833597673305933,0.3380665184940968,0.025771343849943642,0.6279513639222155,1.0000000000000004e-08,239.1095669362694,55.618558479472995
0.9849576024087174,0.37513876974314986,0.9849446152025293,0.3380665184940968,0.02625310438866087,0.6279513304927569,1.0000000000000004e-08,236.77923082467169,55.698919016867876
0.9850429082472938,0.37513876974314986,0.9849346001555673,0.3380665184940968,0.0248823623731291,0.6279514421327679,1.0000000000000004e-08,235.30997623689473,55.15461799688637
0.989036133451196,0.37513876974314986,0.9889013128965387,0.3380665184940968,0.022933652444623445,0.6279516488977928,1.0000000000000004e-08,236.45589298382401,56.52695473656058
0.9833681269956112,0.37513876974314986,0.9833557751729612,0.3380665184940968,0.02587717781019931,0.6279515211559449,1.0000000000000004e-08,239.75723713636398,55.49865976721048
0.9841883830455259,0.37513876974314986,0.9841513035615612,0.3380665184940968,0.022725544031268047,0.6279514212419243,1.0000000000000004e-08,236.48715520091355,55.87682874780148
0.9801926361261805,0.37513876974314986,0.9801901743264659,0.3380665184940968,0.029353139328083987,0.6279513575330687,1.0000000000000004e-08,237.2046643551439,55.45718213636428
0.9813808026634466,0.37513876974314986,0.9813774133398555,0.3380665184940968,0.028156428911802645,0.6279513544606172,1.0000000000000004e-08,237.0007695639506,55.268523649312556
0.9888893076072756,0.37513876974314986,0.9889029719785597,0.3380665184940968,0.024261702884924356,0.627951071612473,1.0000000000000004e-08,238.11789076123387,55.29499779548496
0.9839754202650867,0.37513876974314986,0.9841386647696745,0.3380665184940968,0.02809964037407631,0.627950982757908,1.0000000000000004e-08,236.66457246150821,56.249327801167965
0.984539205587132,0.37513876974314986,0.9845449250059269,0.3380665184940968,0.02646431512358241,0.6279509403245231,1.0000000000000004e-08,235.79442142508924,56.03498903941363
0.978594235610335,0.37513876974314986,0.9786049886216954,0.3380665184940968,0.029254485939638204,0.6279510600188766,1.0000000000000004e-08,236.85185188613832,55.50257188919932
0.9845567251755738,0.37513876974314986,0.9845483796330452,0.3380665184940968,0.022791059223175824,0.627950831747833,1.0000000000000004e-08,238.39095928240567,56.07379998359829
0.9860843700825735,0.37513876974314986,0.98612618356972,0.3380665184940968,0.024046129493265726,0.6279510752190653,1.0000000000000004e-08,236.72960247378796,55.851596808061004
0.9835497955192704,0.37513876974314986,0.9833495845877794,0.3380665184940968,0.029329145982115577,0.627950973294027,1.0000000000000004e-08,236.45945147704333,55.783239375799894
0.9853450874020494,0.37513876974314986,0.9853407566146171,0.3380665184940968,0.026077054831325143,0.6279510400890299,1.0000000000000004e-08,234.75506650656462,56.17121239006519
0.9837427319192756,0.37513876974314986,0.9837550861506003,0.3380665184940968,0.02505638085358657,0.6279507317847353,1.0000000000000004e-08,237.06212903000414,55.369314113631845
0.9864146819415134,0.37513876974314986,0.9865237339068734,0.3380665184940968,0.025400933298399292,0.6279508059047728,1.0000000000000004e-08,235.69418541248888,56.031985303387046
0.9810199481911243,0.37513876974314986,0.9809814478381451,0.3380665184940968,0.0301202027578463,0.6279508476773296,1.0000000000000004e-08,237.24156272783875,56.014583493582904
0.9853422008952893,0.37513876974314986,0.9853333802390433,0.3380665184940968,0.02633750622802948,0.6279508089315712,1.0000000000000004e-08,236.67355488613248,56.30385635513812
0.9838652361155276,0.37513876974314986,0.983751693774916,0.3380665184940968,0.028616851355695118,0.6279507078465494,1.0000000000000004e-08,237.7069037547335,55.28891753870994
0.9864848883203408,0.37513876974314986,0.986521454299522,0.3380665184940968,0.023078720611122865,0.6279506731525009,1.0000000000000004e-08,237.12436078768224,55.560605387203395
0.9825584288395607,0.37513876974314986,0.9825670660772179,0.3380665184940968,0.02714312272902216,0.6279504241241489,1.0000000000000004e-08,236.92357111070305,55.57479249499738
0.9857352998194348,0.37513876974314986,0.9857368471531696,0.3380665184940968,0.024258908133190215,0.6279506476780893,1.0000000000000004e-08,236.56737599615008,55.431594581343234
0.9833886521373917,0.37513876974314986,0.9833503482027586,0.3380665184940968,0.02559280900342028,0.627950324307141,1.0000000000000004e-08,237.3288832893595,56.33792860805988
0.9865718693933314,0.37513876974314986,0.9865244639801541,0.3380665184940968,0.023954223183764948,0.6279503563772796,1.0000000000000004e-08,236.21590369008482,55.81886730995029
0.9857187719827153,0.37513876974314986,0.9857323925438624,0.3380665184940968,0.022756750430576327,0.6279501653465844,1.0000000000000004e-08,236.8203393742442,55.53817693889141
0.9849078877243547,0.37513876974314986,0.9849431403863148,0.3380665184940968,0.026156146293373612,0.627950210741712,1.0000000000000004e-08,236.29627041798085,56.03219717089087
0.9868840787599082,0.37513876974314986,0.9869204972509992,0.3380665184940968,0.024047488662286252,0.6279502006284162,1.0000000000000004e-08,237.5461411504075,55.67276933416724
0.9881084580241288,0.37513876974314986,0.9881084580241289,0.3380665184940968,0.024094746652791956,0.627950226802461,1.0000000000000004e-08,236.0229949755594,55.70801744889468
0.9865006659244482,0.37513876974314986,0.9865279228171926,0.3380665184940968,0.026758378256836208,0.6279499709912046,1.0000000000000004e-08,237.87671543378383,55.623384525068104
0.9821808873436187,0.37513876974314986,0.9821708658322335,0.3380665184940968,0.028100728099808202,0.6279501405409903,1.0000000000000004e-08,236.12588042300195,55.955066449940205
0.9821634632063445,0.37513876974314986,0.9821704012334729,0.3380665184940968,0.02798693244189898,0.6279499231673339,1.0000000000000004e-08,237.72804589010775,56.0345852477476
0.9832113708408086,0.37513876974314986,0.9833325681567904,0.3380665184940968,0.026123093738511946,0.6279499079100788,1.0000000000000004e-08,236.12685384601355,56.125543566420674
0.9849054754869444,0.37513876974314986,0.9849376474638109,0.3380665184940968,0.025464439043505954,0.6279499940026332,1.0000000000000004e-08,235.97013755328953,55.491046217270195
0.9885079014358412,0.37513876974314986,0.988510228966605,0.3380665184940968,0.023552966149638616,0.6279497102106117,1.0000000000000004e-08,237.73460633307695,55.68152136635035
0.9825837295334959,0.37513876974314986,0.9825652187291398,0.3380665184940968,0.027974950776422192,0.6279497294134333,1.0000000000000004e-08,237.3309723958373,55.37287920713425
0.9829742706824419,0.37513876974314986,0.9829634696931786,0.3380665184940968,0.027508054927247467,0.627949797891893,1.0000000000000004e-08,236.54594754613936,55.50379193201661
0.9817951014710974,0.37513876974314986,0.9817710545309302,0.3380665184940968,0.02779846802912211,0.627949494917594,1.0000000000000004e-08,238.3777008894831,55.59114998392761
0.9833612508556953,0.37513876974314986,0.9833597072534115,0.3380665184940968,0.025278991397240717,0.6279495521699644,1.0000000000000004e-08,237.3357373988256,55.52537040784955
0.9853559910555839,0.37513876974314986,0.9853406783774221,0.3380665184940968,0.024489738801891488,0.6279494424199905,1.0000000000000004e-08,236.71686590276659,56.49434340465814
0.9849413835994634,0.37513876974314986,0.9849444757691327,0.3380665184940968,0.02649833355347242,0.6279493705940196,1.0000000000000004e-08,237.65525890607387,56.993120023049414
0.9837549093169496,0.37513876974314986,0.983755835853007,0.3380665184940968,0.02853112266524761,0.6279493268093039,1.0000000000000004e-08,234.49374522082508,55.587245808914304
0.9802070652724177,0.37513876974314986,0.9801901401210097,0.3380665184940968,0.030909615199708366,0.6279495079184463,1.0000000000000004e-08,237.6158842612058,55.77670014835894
0.9873690992218009,0.37513876974314986,0.987321361295994,0.3380665184940968,0.02392037949630752,0.6279495549570843,1.0000000000000004e-08,234.76472701318562,52.24703443516046
0.9840012492838063,0.37513876974314986,0.9841366884488664,0.3380665184940968,0.027403190330065944,0.6279493545469663,1.0000000000000004e-08,230.58210934698582,51.439641546458006
