train_tss_values,val_tss_values,train_hss_values,val_hss_values,train_loss_values,val_loss_values,learning_rate,train_time,val_time
0.4089113521914253,0.42250542125559487,0.40879291729875866,0.30317919628997947,0.5686500555043543,0.8643844863563254,0.01,315.5699219312519,66.4222709396854
0.5803556253688156,0.47005757747321414,0.579956147082916,0.39955190186333006,0.45261022501568776,0.5593741857691815,0.01,311.4232509089634,63.191186994314194
0.6039541119238703,0.25683665730187044,0.6041926168130551,0.3178327109289798,0.43164327433100796,0.4830064281429115,0.01,315.1039472045377,63.32556392531842
0.6596375874288112,0.46534135216262695,0.6595427913164703,0.47303467784407727,0.3733187547994254,0.42676640560098905,0.01,312.58369481377304,63.89770893100649
0.7113604258620416,0.47748710115048126,0.7113960928435651,0.49024425019467627,0.3351495408873965,0.44784107559213515,0.01,312.0677786665037,64.42487680353224
0.7455550298231018,0.4882494952624102,0.7455524070350963,0.4584265267845501,0.30704617587803096,0.47884272079784096,0.01,311.76112704817206,64.02489237580448
0.7919575989639056,0.4767607063121575,0.791777588714768,0.47215331150523926,0.2588006312233061,0.48601390243295517,0.01,312.6292525809258,64.52081649564207
0.8221185825105876,0.5410119321034471,0.8220708640248341,0.4650062606663736,0.227636197873547,0.594329531909081,0.01,312.2821425413713,64.65429778117687
0.850227894858349,0.34842383002360783,0.8502357463806928,0.40623418839878006,0.20074061358685596,0.6762788761590951,0.001,312.9009840739891,63.90046746842563
0.8991643199259831,0.48185615245745783,0.8991690647228926,0.4722553390854162,0.13878834323155498,0.5903469605551085,0.001,314.11944099515676,64.46705003641546
0.9187610699945991,0.4670024462414408,0.9187432934906987,0.4670024462414408,0.11662751239694628,0.5863535003532377,0.001,312.24196971952915,65.86981735005975
0.927080636082184,0.46783299328084776,0.9270441074655094,0.464059317027685,0.11322348247020377,0.5981865289188072,0.001,311.1989810951054,64.68367068655789
0.936862042287935,0.4819950220589021,0.9368299068221864,0.44675529130160885,0.09526395647756729,0.6513187679944135,0.001,314.7536922758445,64.85757993720472
0.9383478090568811,0.47535064574364677,0.9385481421484256,0.46886890736601705,0.09477682223749012,0.6318082260948262,0.0001,313.4202353945002,64.94034390430897
0.9509420035307246,0.48644151987437645,0.9507191370619378,0.45361191874038886,0.08231179704856512,0.6576899938170978,0.0001,312.50081052072346,64.55335442349315
0.9380267285668198,0.48106032281841205,0.9380160033942436,0.46848833746640123,0.09133479135687665,0.6546365215459413,0.0001,312.963335682638,64.35277417954057
0.9516818668628448,0.4765016610940788,0.9516296893291136,0.4446800980939469,0.07985136314921638,0.658383261155043,0.0001,314.2012851377949,64.01886905916035
0.9463281554038455,0.4840967600653756,0.9463229120989006,0.47256815272676084,0.08244825828674637,0.656832338555863,0.0001,313.46692811790854,63.89861125405878
0.9498779064015039,0.48004817706942415,0.9498811644616307,0.4671327035771365,0.07777004012360744,0.6688671934912634,1e-05,314.83835350349545,64.94458054564893
0.953435598426341,0.48004817706942415,0.9534391203068104,0.4671327035771365,0.07885026387552138,0.6666771733741227,1e-05,312.94213178846985,63.84664079453796
0.9501975884081467,0.4790360313204363,0.9501735187577577,0.46577921344448786,0.0793199979309059,0.6688929741993841,1e-05,314.39087415859103,63.34586917050183
0.9548353248058407,0.4780238855714485,0.954907903891083,0.4644278619873694,0.0802052202684228,0.6693837244427159,1e-05,311.39131923858076,63.633865776471794
0.9600269172492507,0.4780238855714485,0.9599594475279828,0.4644278619873694,0.07122114332048123,0.6708316923151806,1e-05,312.15787075832486,63.16738588362932
0.9525449317132975,0.48106032281841205,0.95253437259409,0.46848833746640123,0.07797120321290137,0.6690168472889223,1.0000000000000002e-06,312.2450083689764,63.89011597074568
0.950507449452968,0.48106032281841205,0.9504688241319748,0.46848833746640123,0.07847526264658655,0.668804152513315,1.0000000000000002e-06,312.10493594408035,64.31158668361604
0.9497866800961602,0.48106032281841205,0.9498583831126152,0.46848833746640123,0.08344436204889491,0.6687883975703204,1.0000000000000002e-06,312.35146688111126,63.683873302303255
0.9451551055731061,0.48004817706942415,0.9451371509663221,0.4671327035771365,0.08024624399376827,0.66917627850719,1.0000000000000002e-06,312.750138733536,64.64720047451556
0.9519145792288207,0.4790360313204363,0.9519520893027026,0.46577921344448786,0.08137015211876494,0.6693042468671736,1.0000000000000002e-06,311.53402959834784,64.72179033886641
0.9505086358313817,0.48004817706942415,0.950468170624998,0.4671327035771365,0.07889604810095024,0.6690566988964156,1.0000000000000002e-07,313.18673136271536,63.50763485208154
0.9470150181245037,0.48004817706942415,0.9469143203314807,0.4671327035771365,0.08065286604521855,0.669067557852127,1.0000000000000002e-07,312.7423002254218,63.78880876023322
0.9441715881083192,0.48004817706942415,0.9442343785956623,0.4671327035771365,0.08301802026107907,0.6690590453718119,1.0000000000000002e-07,311.95819756016135,64.4738829638809
0.9563573861399515,0.48004817706942415,0.9564002873082479,0.4671327035771365,0.071035827490173,0.6690549708498446,1.0000000000000002e-07,312.9258269360289,63.75479249469936
0.9499646473626105,0.48004817706942415,0.9498709714194833,0.4671327035771365,0.08209016705528432,0.6690566727805785,1.0000000000000002e-07,312.27434430550784,63.66398408729583
0.9490492113351573,0.48004817706942415,0.9489891122171984,0.4671327035771365,0.0802289435782493,0.66905808939574,1.0000000000000004e-08,312.1328109484166,63.67496132943779
0.9401487593529116,0.48004817706942415,0.9403315092226753,0.4671327035771365,0.08813102678909526,0.6690580876066202,1.0000000000000004e-08,311.80217118933797,64.93301622476429
0.9528472717246426,0.48004817706942415,0.9528458470769681,0.4671327035771365,0.077972548672419,0.6690578189649897,1.0000000000000004e-08,311.05212106276304,63.804428084753454
0.9461357621487696,0.48004817706942415,0.9460112449301749,0.4671327035771365,0.08393340774901291,0.669057609131478,1.0000000000000004e-08,315.62546012178063,64.0815883744508
0.949599310729131,0.48004817706942415,0.9495777608053907,0.4671327035771365,0.08594109496893858,0.669057095954358,1.0000000000000004e-08,314.69393056910485,64.19663912802935
0.9496158176189136,0.48004817706942415,0.9495830779828165,0.4671327035771365,0.08569829161792622,0.6690569928798237,1.0000000000000004e-08,317.5413140486926,63.981532705016434
0.9502988742052904,0.48004817706942415,0.9501517018056387,0.4671327035771365,0.0812575415396579,0.669057054535012,1.0000000000000004e-08,313.38594757486135,64.0000011632219
0.9523112972713376,0.48004817706942415,0.9522508232874469,0.4671327035771365,0.0814638491802819,0.669057019690068,1.0000000000000004e-08,313.622916710563,64.35151108726859
0.9557836187641577,0.48004817706942415,0.955808586553436,0.4671327035771365,0.07497971216581258,0.6690571288753856,1.0000000000000004e-08,312.1345629217103,64.2269177949056
0.9539064658198537,0.48004817706942415,0.9537295903611406,0.4671327035771365,0.07513098445227137,0.6690574105085576,1.0000000000000004e-08,313.07705896999687,64.60015469789505
0.9518639659520808,0.48004817706942415,0.9519450221157196,0.4671327035771365,0.0839419696062432,0.6690573432327559,1.0000000000000004e-08,311.8868180634454,64.32748326193541
0.9516855980375737,0.48004817706942415,0.951655463243319,0.4671327035771365,0.08034519733549543,0.669057396587736,1.0000000000000004e-08,312.94539757538587,64.77960257790983
0.9480714738084774,0.48004817706942415,0.9480999078093939,0.4671327035771365,0.08164910298649526,0.6690572286800792,1.0000000000000004e-08,312.3564351387322,64.15242724493146
0.9499127680687773,0.48004817706942415,0.9498824427080795,0.4671327035771365,0.08037579948334454,0.6690572699135692,1.0000000000000004e-08,312.2807935308665,64.33176157716662
0.9525682174020617,0.48004817706942415,0.952547439587302,0.4671327035771365,0.07590308474224339,0.6690573190775978,1.0000000000000004e-08,312.5229685176164,66.47735734004527
0.953434048924362,0.48004817706942415,0.9534397509300546,0.4671327035771365,0.0790778841356021,0.6690569291169053,1.0000000000000004e-08,314.3450075974688,64.36784075386822
0.9516541311062485,0.48004817706942415,0.9516601572806503,0.4671327035771365,0.07378376536303302,0.6690568685237515,1.0000000000000004e-08,311.46463797520846,64.1762140262872
0.9528525880317411,0.48004817706942415,0.9528471409685338,0.4671327035771365,0.08150654759596092,0.6690566868076036,1.0000000000000004e-08,310.7683437736705,66.32591295521706
0.9525846195927741,0.48004817706942415,0.9525499352741786,0.4671327035771365,0.07741651797146798,0.6690565617162767,1.0000000000000004e-08,312.20484008360654,64.19092566333711
0.9492654655393635,0.48004817706942415,0.9492865881384449,0.4671327035771365,0.07926370709756675,0.6690564345825758,1.0000000000000004e-08,314.32618529256433,64.28038542717695
0.9528473935523317,0.48004817706942415,0.9528462203222071,0.4671327035771365,0.08171094949373783,0.6690563670576044,1.0000000000000004e-08,312.9309677965939,65.93715201597661
0.9572978211809984,0.48004817706942415,0.9572954638039374,0.4671327035771365,0.07760557283073982,0.6690561909396038,1.0000000000000004e-08,313.5983790429309,64.21433329954743
0.9540076104223731,0.48004817706942415,0.9540252330800877,0.4671327035771365,0.07686623691637533,0.6690558818017802,1.0000000000000004e-08,313.14791559800506,64.44202945567667
0.9528458811323364,0.48004817706942415,0.9528433669196414,0.4671327035771365,0.07566453314807227,0.6690559373706939,1.0000000000000004e-08,313.6845970125869,64.4136666180566
0.9474402247580065,0.48004817706942415,0.9474915700622665,0.4671327035771365,0.08795924898936311,0.6690554183605536,1.0000000000000004e-08,313.93404910340905,63.843585250899196
0.9564318821533508,0.48004817706942415,0.9564045437131335,0.4671327035771365,0.07436674824017647,0.6690551469024891,1.0000000000000004e-08,312.47152467723936,65.06990343239158
0.9557988450496593,0.48004817706942415,0.9558118746154423,0.4671327035771365,0.07828601251366246,0.6690553801191416,1.0000000000000004e-08,313.0487972917035,64.74459483008832
0.9525709219858156,0.48004817706942415,0.9525508157966946,0.4671327035771365,0.08173805101545945,0.6690552254031789,1.0000000000000004e-08,313.41085986979306,65.86850893497467
0.9555789482757696,0.48004817706942415,0.9555142340818487,0.4671327035771365,0.07552047350586415,0.669055405597758,1.0000000000000004e-08,313.65002885088325,64.49591717682779
0.9468841853077292,0.48004817706942415,0.9469126674909615,0.4671327035771365,0.08343830229747656,0.669055266593779,1.0000000000000004e-08,312.3308359980583,64.60805185232311
0.9525551897323637,0.48004817706942415,0.9525494929140418,0.4671327035771365,0.07909626226202714,0.6690552455757075,1.0000000000000004e-08,311.97219640761614,64.91673875506967
0.9435933352818139,0.48004817706942415,0.9436462878351082,0.4671327035771365,0.08453112912241674,0.6690551328877183,1.0000000000000004e-08,314.0165751846507,63.99512467905879
0.9501841104599437,0.48004817706942415,0.9501780936851937,0.4671327035771365,0.0780356685113944,0.6690548773438326,1.0000000000000004e-08,312.07778580859303,64.27989354357123
0.9430472037929364,0.48004817706942415,0.9430588155828366,0.4671327035771365,0.08620320593944861,0.6690545535172548,1.0000000000000004e-08,312.0466300714761,66.83986673783511
0.9468475783931856,0.48004817706942415,0.9469070451951768,0.4671327035771365,0.0892691036977961,0.6690545236781698,1.0000000000000004e-08,312.01354891620576,63.876959677785635
0.952138474866953,0.48004817706942415,0.9522402460987562,0.4671327035771365,0.0788742299531371,0.6690545165012672,1.0000000000000004e-08,313.21571384370327,64.19991222023964
0.9475143310953548,0.48004817706942415,0.9475091645513868,0.4671327035771365,0.08064489556539446,0.6690546271101195,1.0000000000000004e-08,312.8597784359008,63.896345779299736
0.9498325517675209,0.48004817706942415,0.949875160238734,0.4671327035771365,0.0872796974144876,0.6690541374284709,1.0000000000000004e-08,313.68599156383425,64.23969658836722
0.945714027147252,0.48004817706942415,0.9457285827564444,0.4671327035771365,0.08325360260002342,0.6690541176827984,1.0000000000000004e-08,314.8554981984198,64.23559681233019
0.9470715017503873,0.48004817706942415,0.9469023746089075,0.4671327035771365,0.08445531744808224,0.6690539224154985,1.0000000000000004e-08,312.28322997130454,63.76497196871787
0.9536769424928004,0.48004817706942415,0.9537314665555586,0.4671327035771365,0.07217115725496671,0.6690544209018219,1.0000000000000004e-08,312.3349327510223,63.76905946806073
0.9516976060434431,0.48004817706942415,0.951627501238276,0.4671327035771365,0.07962450947035833,0.669054196248844,1.0000000000000004e-08,312.21720469836146,64.15291560720652
0.9398074075598774,0.48004817706942415,0.9397888074715374,0.4671327035771365,0.08517670622791472,0.6690537788406864,1.0000000000000004e-08,313.8669727090746,64.91694246605039
0.9516854201377944,0.48004817706942415,0.9516603103317384,0.4671327035771365,0.07838807251218216,0.6690537192278722,1.0000000000000004e-08,312.27501278184354,64.1487823612988
0.9505265002438369,0.48004817706942415,0.9504427663427176,0.4671327035771365,0.08222653900415659,0.6690536896951431,1.0000000000000004e-08,312.16377098020166,64.33486765809357
0.9499910612857954,0.48004817706942415,0.9501515614418681,0.4671327035771365,0.07925302876504238,0.6690535676837164,1.0000000000000004e-08,312.7039999142289,63.995158568024635
0.9516281430150164,0.48004817706942415,0.9516570195197507,0.4671327035771365,0.07652965091414139,0.6690533047362247,1.0000000000000004e-08,306.41317301709205,58.49306385777891
